Warning: Permanently added '10.128.0.20' (ECDSA) to the list of known hosts.
Warning: Permanently added '10.128.0.13' (ECDSA) to the list of known hosts.
Warning: Permanently added '10.128.0.19' (ECDSA) to the list of known hosts.
Warning: Permanently added '10.128.0.12' (ECDSA) to the list of known hosts.
Warning: Permanently added '10.128.0.18' (ECDSA) to the list of known hosts.
Warning: Permanently added '10.128.0.22' (ECDSA) to the list of known hosts.
Warning: Permanently added '10.128.0.21' (ECDSA) to the list of known hosts.
